fleet_in_being =
{
	can_select = {
		is_primitive = no
	}
	
	country_modifier = {
		naval_maintenance_modifier = -0.15
	}
	
	button_gfx = 1
}

free_oarsmen =
{
	can_select = {
		is_primitive = no
	}

	country_modifier = {
		galley_power = 0.15
	}
	
	button_gfx = 2
}

merchant_navy =
{
	can_select = {
		is_primitive = no
	}

	country_modifier = {
		global_ship_trade_power = 0.33
	}
	
	button_gfx = 3
}

ship_boarding =
{
	can_select = {
		is_primitive = no
	}

	country_modifier = {
		capture_ship_chance = 0.33
	}
	
	button_gfx = 4
}

wooden_wall =
{
	can_select = {
		is_primitive = no
		OR = {
			has_country_flag = tefori_protection
			primary_culture = east_damerian
			primary_culture = west_damerian
			primary_culture = anbenncoster
		}
	}

	country_modifier = {
		own_coast_naval_combat_bonus = 1.0
	}

	button_gfx = 5
}

grand_armada =
{
	can_select = {
		is_primitive = no
		NOT = {
			OR = {
				primary_culture = portugese
				primary_culture = brazilian
			}
		}
		culture_group = iberian
	}

	country_modifier = {
		treasure_fleet_income = 0.5
	}

	button_gfx = 6
}

portuguese_marines =
{
	can_select = {
		is_primitive = no
		OR = {
			primary_culture = portugese
			primary_culture = brazilian
		}
	}

	country_modifier = {
		siege_blockade_progress = 1
		global_naval_barrage_cost = -0.4
		allowed_marine_fraction = 0.5
	}

	button_gfx = 7
}