

command_xiadao_2 = {
	slot = 3
	generic = no
	ai = yes
	has_country_shield = yes
	potential = {
		tag = R62
	}
	
	R62_the_war_room = {
		icon = mission_assemble_an_army
		position = 1
		
		trigger = {
			num_of_generals = 3
			employed_advisor = { category = ADM }
			employed_advisor = { category = DIP }
			employed_advisor = { category = MIL }
		}
		
		effect = {
			
		}
	}
}


#Campaigns
command_xiadao_2 = {
	slot = 2
	generic = no
	ai = yes
	has_country_shield = yes
	potential = {
		tag = R62
		has_country_flag = command_xiadao_campaign_activated_flag
	}
	
	R62_prepare_the_troops = {
		icon = mission_assemble_an_army
		position = 2
		
		trigger = {
			
		}
		
		effect = {
			
		}
	}
	
	R62_the_battle_of_shanyutian = {
		icon = mission_assemble_an_army
		position = 3
		required_missions = {
			R62_prepare_the_troops
		}
		
		trigger = {
			
		}
		
		effect = {
			
		}
	}
}

command_xiadao_3 = {
	slot = 3
	generic = no
	ai = yes
	has_country_shield = yes
	potential = {
		tag = R62
		has_country_flag = command_xiadao_campaign_activated_flag
	}
	
	R62_start_the_xiadao_campaign = {
		icon = mission_assemble_an_army
		position = 2
		required_missions = {
			R62_the_war_room
		}
		
		trigger = {
			
		}
		
		effect = {
			
		}
	}
	
	R62_dissolve_the_mists = {
		icon = mission_assemble_an_army
		position = 3
		required_missions = {
			R62_start_the_xiadao_campaign
		}
		
		trigger = {
			
		}
		
		effect = {
			
		}
	}
	
	R62_victor_of_the_xiadao = {
		icon = mission_assemble_an_army
		position = 4
		required_missions = {
			R62_dissolve_the_mists
		}
		
		trigger = {
			
		}
		
		effect = {
			
		}
	}
}

command_xiadao_4 = {
	slot = 4
	generic = no
	ai = yes
	has_country_shield = yes
	potential = {
		tag = R62
		has_country_flag = command_xiadao_campaign_activated_flag
	}
	
	R62_inspect_the_temple = {
		icon = mission_assemble_an_army
		position = 3
		required_missions = {
			R62_start_the_xiadao_campaign
		}
		
		trigger = {
			
		}
		
		effect = {
			
		}
	}
	
	R62_shattering_the_alliance = {
		icon = mission_assemble_an_army
		position = 4
		required_missions = {
			R62_inspect_the_temple
		}
		
		trigger = {
			
		}
		
		effect = {
			
		}
	}
}

command_shamakhad_3 = {
	slot = 3
	generic = no
	ai = yes
	has_country_shield = yes
	potential = {
		tag = R62
		has_country_flag = command_shamakhad_campaign_activated_flag
	}
	
	R62_start_the_shamakhad_campaign = {
		icon = mission_assemble_an_army
		position = 2
		required_missions = {
			R62_the_war_room
		}
		
		trigger = {
			
		}
		
		effect = {
			
		}
	}
	
	R62_seize_the_ancient_cities = {
		icon = mission_assemble_an_army
		position = 3
		required_missions = {
			R62_start_the_shamakhad_campaign
		}
		
		trigger = {
			
		}
		
		effect = {
			
		}
	}
	
	R62_a_final_ruin = {
		icon = mission_assemble_an_army
		position = 4
		required_missions = {
			R62_seize_the_ancient_cities
		}
		
		trigger = {
			
		}
		
		effect = {
			
		}
	}
}

command_shamakhad_4 = {
	slot = 4
	generic = no
	ai = yes
	has_country_shield = yes
	potential = {
		tag = R62
		has_country_flag = command_shamakhad_campaign_activated_flag
	}
	
	R62_the_ramp_of_sarnihanpur = {
		icon = mission_assemble_an_army
		position = 3
		required_missions = {
			R62_start_the_shamakhad_campaign
		}
		
		trigger = {
			
		}
		
		effect = {
			
		}
	}
	
	R62_the_spoils_of_war = {
		icon = mission_assemble_an_army
		position = 4
		required_missions = {
			R62_the_ramp_of_sarnihanpur
		}
		
		trigger = {
			
		}
		
		effect = {
			
		}
	}
}

command_bianfang_2 = {
	slot = 2
	generic = no
	ai = yes
	has_country_shield = yes
	potential = {
		tag = R62
		has_country_flag = command_bianfang_campaign_activated_flag
	}
	
	R62_construct_a_river_fleet = {
		icon = mission_assemble_an_army
		position = 2
		
		trigger = {
			
		}
		
		effect = {
			
		}
	}
	
	R62_move_the_fleet_downriver = {
		icon = mission_assemble_an_army
		position = 3
		required_missions = {
			R62_construct_a_river_fleet
		}
		
		trigger = {
			
		}
		
		effect = {
			
		}
	}
	
	R62_the_third_city = {
		icon = mission_assemble_an_army
		position = 4
		required_missions = {
			R62_move_the_fleet_downriver
		}
		
		trigger = {
			
		}
		
		effect = {
			
		}
	}
}

command_bianfang_3 = {
	slot = 3
	generic = no
	ai = yes
	has_country_shield = yes
	potential = {
		tag = R62
		has_country_flag = command_bianfang_campaign_activated_flag
	}
	
	R62_start_the_bianfang_campaign = {
		icon = mission_assemble_an_army
		position = 2
		required_missions = {
			R62_the_war_room
		}
		
		trigger = {
			
		}
		
		effect = {
			
		}
	}
	
	R62_by_the_throat = {
		icon = mission_assemble_an_army
		position = 3
		required_missions = {
			R62_start_the_bianfang_campaign
		}
		
		trigger = {
			
		}
		
		effect = {
			
		}
	}
	
	R62_the_superior_drill = {
		icon = mission_assemble_an_army
		position = 4
		required_missions = {
			R62_by_the_throat
		}
		
		trigger = {
			
		}
		
		effect = {
			
		}
	}
}

command_bianfang_4 = {
	slot = 4
	generic = no
	ai = yes
	has_country_shield = yes
	potential = {
		tag = R62
		has_country_flag = command_bianfang_campaign_activated_flag
	}
	
	R62_secure_the_hill_fortification = {
		icon = mission_assemble_an_army
		position = 3
		
		trigger = {
			
		}
		
		effect = {
			
		}
	}
}

command_ghavaanaj_2 = {
	slot = 2
	generic = no
	ai = yes
	has_country_shield = yes
	potential = {
		tag = R62
		has_country_flag = command_ghavaanaj_campaign_activated_flag
	}
	
	R62_break_the_northern_guard = {
		icon = mission_assemble_an_army
		position = 3
		
		trigger = {
			
		}
		
		effect = {
			
		}
	}
}

command_ghavaanaj_3 = {
	slot = 3
	generic = no
	ai = yes
	has_country_shield = yes
	potential = {
		tag = R62
		has_country_flag = command_ghavaanaj_campaign_activated_flag
	}
	
	R62_start_the_ghavaanaj_campaign = {
		icon = mission_assemble_an_army
		position = 2
		required_missions = {
			R62_the_war_room
		}
		
		trigger = {
			
		}
		
		effect = {
			
		}
	}
	
	R62_dont_get_trampled = {
		icon = mission_assemble_an_army
		position = 3
		required_missions = {
			R62_start_the_ghavaanaj_campaign
		}
		
		trigger = {
			
		}
		
		effect = {
			
		}
	}
	
	R62_bulwark_of_elephants = {
		icon = mission_assemble_an_army
		position = 4
		required_missions = {
			R62_dont_get_trampled
		}
		
		trigger = {
			
		}
		
		effect = {
			
		}
	}
}

command_dhujat_2 = {
	slot = 2
	generic = no
	ai = yes
	has_country_shield = yes
	potential = {
		tag = R62
		has_country_flag = command_dhujat_campaign_activated_flag
	}
	
	R62_the_bombardment_of_khiraspid = {
		icon = mission_assemble_an_army
		position = 3
		required_missions = {
			R62_start_the_dhujat_campaign
		}
		
		trigger = {
			
		}
		
		effect = {
			
		}
	}
}

command_dhujat_3 = {
	slot = 3
	generic = no
	ai = yes
	has_country_shield = yes
	potential = {
		tag = R62
		has_country_flag = command_dhujat_campaign_activated_flag
	}
	
	R62_start_the_dhujat_campaign = {
		icon = mission_assemble_an_army
		position = 2
		required_missions = {
			R62_the_war_room
		}
		
		trigger = {
			
		}
		
		effect = {
			
		}
	}
	
	R62_control_the_crossings = {
		icon = mission_assemble_an_army
		position = 3
		required_missions = {
			R62_start_the_dhujat_campaign
		}
		
		trigger = {
			
		}
		
		effect = {
			
		}
	}
	
	R62_down_the_great_river = {
		icon = mission_assemble_an_army
		position = 4
		required_missions = {
			R62_control_the_crossings
		}
		
		trigger = {
			
		}
		
		effect = {
			
		}
	}
}

command_dhujat_4 = {
	slot = 4
	generic = no
	ai = yes
	has_country_shield = yes
	potential = {
		tag = R62
		has_country_flag = command_dhujat_campaign_activated_flag
	}
	
	R62_the_fate_of_the_oracle = {
		icon = mission_assemble_an_army
		position = 2
		
		trigger = {
			
		}
		
		effect = {
			
		}
	}
	
	R62_the_heart_of_haless = {
		icon = mission_assemble_an_army
		position = 3
		
		trigger = {
			
		}
		
		effect = {
			
		}
	}
	
	R62_order_out_of_chaos = {
		icon = mission_assemble_an_army
		position = 4
		required_missions = {
			R62_the_heart_of_haless
		}
		
		trigger = {
			
		}
		
		effect = {
			
		}
	}
}

command_bhuvauri_2 = {
	slot = 2
	generic = no
	ai = yes
	has_country_shield = yes
	potential = {
		tag = R62
		has_country_flag = command_bhuvauri_campaign_activated_flag
	}
	
	R62_threaten_mercenary_executions = {
		icon = mission_assemble_an_army
		position = 2
		
		trigger = {
			
		}
		
		effect = {
			
		}
	}
	
	R62_raheni_slavery = {
		icon = mission_assemble_an_army
		position = 3
		required_missions = {
			R62_start_the_bhuvauri_campaign
		}
		
		trigger = {
			
		}
		
		effect = {
			
		}
	}
}

command_bhuvauri_3 = {
	slot = 3
	generic = no
	ai = yes
	has_country_shield = yes
	potential = {
		tag = R62
		has_country_flag = command_bhuvauri_campaign_activated_flag
	}
	
	R62_start_the_bhuvauri_campaign = {
		icon = mission_assemble_an_army
		position = 2
		required_missions = {
			R62_the_war_room
		}
		
		trigger = {
			
		}
		
		effect = {
			
		}
	}
	
	R62_the_chained_port = {
		icon = mission_assemble_an_army
		position = 4
		required_missions = {
			R62_start_the_bhuvauri_campaign
		}
		
		trigger = {
			
		}
		
		effect = {
			
		}
	}
}

command_bhuvauri_4 = {
	slot = 4
	generic = no
	ai = yes
	has_country_shield = yes
	potential = {
		tag = R62
		has_country_flag = command_bhuvauri_campaign_activated_flag
	}
	
	R62_the_kharunyana_fleet = {
		icon = mission_assemble_an_army
		position = 2
		
		trigger = {
			
		}
		
		effect = {
			
		}
	}
}

command_dhenbasana_2 = {
	slot = 2
	generic = no
	ai = yes
	has_country_shield = yes
	potential = {
		tag = R62
		has_country_flag = command_dhenbasana_campaign_activated_flag
	}
	
	R62_local_command_support_dhenbasana = {
		icon = mission_assemble_an_army
		position = 2
		
		trigger = {
			
		}
		
		effect = {
			
		}
	}
}

command_dhenbasana_3 = {
	slot = 3
	generic = no
	ai = yes
	has_country_shield = yes
	potential = {
		tag = R62
		has_country_flag = command_dhenbasana_campaign_activated_flag
	}
	
	R62_start_the_dhenbasana_campaign = {
		icon = mission_assemble_an_army
		position = 2
		required_missions = {
			R62_the_war_room
		}
		
		trigger = {
			
		}
		
		effect = {
			
		}
	}
	
	R62_the_southern_cities = {
		icon = mission_assemble_an_army
		position = 3
		required_missions = {
			R62_start_the_dhenbasana_campaign
		}
		
		trigger = {
			
		}
		
		effect = {
			
		}
	}
	
	R62_the_palace_city = {
		icon = mission_assemble_an_army
		position = 4
		required_missions = {
			R62_the_southern_cities
		}
		
		trigger = {
			
		}
		
		effect = {
			
		}
	}
}

command_dhenbasana_4 = {
	slot = 4
	generic = no
	ai = yes
	has_country_shield = yes
	potential = {
		tag = R62
		has_country_flag = command_dhenbasana_campaign_activated_flag
	}
	
	R62_the_battle_of_durdhinana = {
		icon = mission_assemble_an_army
		position = 3
		required_missions = {
			R62_start_the_dhenbasana_campaign
		}
		
		trigger = {
			
		}
		
		effect = {
			
		}
	}
	
	R62_the_city_of_victory = {
		icon = mission_assemble_an_army
		position = 4
		required_missions = {
			R62_the_battle_of_durdhinana
		}
		
		trigger = {
			
		}
		
		effect = {
			
		}
	}
}

command_rakhadesh_2 = {
	slot = 2
	generic = no
	ai = yes
	has_country_shield = yes
	potential = {
		tag = R62
		has_country_flag = command_rakhadesh_campaign_activated_flag
	}
	
	R62_prepare_the_front = {
		icon = mission_assemble_an_army
		position = 2
		
		trigger = {
			
		}
		
		effect = {
			
		}
	}
	
	R62_the_dhenbasana_rapids = {
		icon = mission_assemble_an_army
		position = 3
		required_missions = {
			R62_start_the_rakhadesh_campaign
		}
		
		trigger = {
			
		}
		
		effect = {
			
		}
	}
	
	R62_visit_the_hall_of_endless_debate = {
		icon = mission_assemble_an_army
		position = 4
		required_missions = {
			R62_the_dhenbasana_rapids
		}
		
		trigger = {
			
		}
		
		effect = {
			
		}
	}
}

command_rakhadesh_3 = {
	slot = 3
	generic = no
	ai = yes
	has_country_shield = yes
	potential = {
		tag = R62
		has_country_flag = command_rakhadesh_campaign_activated_flag
	}
	
	R62_start_the_rakhadesh_campaign = {
		icon = mission_assemble_an_army
		position = 2
		required_missions = {
			R62_the_war_room
		}
		
		trigger = {
			
		}
		
		effect = {
			
		}
	}
	
	R62_the_backwater_campaign = {
		icon = mission_assemble_an_army
		position = 4
		required_missions = {
			R62_the_dhenbasana_rapids
			R62_the_narajandi_rapids
		}
		
		trigger = {
			
		}
		
		effect = {
			
		}
	}
}

command_rakhadesh_4 = {
	slot = 4
	generic = no
	ai = yes
	has_country_shield = yes
	potential = {
		tag = R62
		has_country_flag = command_rakhadesh_campaign_activated_flag
	}
	
	R62_the_narajandi_rapids = {
		icon = mission_assemble_an_army
		position = 3
		required_missions = {
			R62_start_the_rakhadesh_campaign
		}
		
		trigger = {
			
		}
		
		effect = {
			
		}
	}
	
	R62_the_root_gate = {
		icon = mission_assemble_an_army
		position = 4
		required_missions = {
			R62_the_narajandi_rapids
		}
		
		trigger = {
			
		}
		
		effect = {
			
		}
	}
}

command_rahen_coast_3 = {
	slot = 3
	generic = no
	ai = yes
	has_country_shield = yes
	potential = {
		tag = R62
		has_country_flag = command_rahen_coast_campaign_activated_flag
	}
	
	R62_start_the_rahen_coast_campaign = {
		icon = mission_assemble_an_army
		position = 2
		required_missions = {
			R62_the_war_room
		}
		
		trigger = {
			
		}
		
		effect = {
			
		}
	}
	
	R62_an_unusual_frontier = {
		icon = mission_assemble_an_army
		position = 3
		required_missions = {
			R62_start_the_rahen_coast_campaign
		}
		
		trigger = {
			
		}
		
		effect = {
			
		}
	}
	
	R62_ports_of_rahen = {
		icon = mission_assemble_an_army
		position = 4
		required_missions = {
			R62_an_unusual_frontier
		}
		
		trigger = {
			
		}
		
		effect = {
			
		}
	}
}

command_rahen_coast_4 = {
	slot = 4
	generic = no
	ai = yes
	has_country_shield = yes
	potential = {
		tag = R62
		has_country_flag = command_rahen_coast_campaign_activated_flag
	}
	
	R62_enlist_naval_experts = {
		icon = mission_assemble_an_army
		position = 2
		
		trigger = {
			
		}
		
		effect = {
			
		}
	}
	
	R62_dominance_at_sea = {
		icon = mission_assemble_an_army
		position = 3
		required_missions = {
			R62_start_the_rahen_coast_campaign
			R62_enlist_naval_experts
		}
		
		trigger = {
			
		}
		
		effect = {
			
		}
	}
	
	R62_the_great_assault = {
		icon = mission_assemble_an_army
		position = 4
		required_missions = {
			R62_dominance_at_sea
		}
		
		trigger = {
			
		}
		
		effect = {
			
		}
	}
}

command_telebei_2 = {
	slot = 2
	generic = no
	ai = yes
	has_country_shield = yes
	potential = {
		tag = R62
		has_country_flag = command_telebei_campaign_activated_flag
	}
	
	R62_the_kharunyana_fords = {
		icon = mission_assemble_an_army
		position = 3
		required_missions = {
			R62_start_the_telebei_campaign
		}
		
		trigger = {
			
		}
		
		effect = {
			
		}
	}
}

command_telebei_3 = {
	slot = 3
	generic = no
	ai = yes
	has_country_shield = yes
	potential = {
		tag = R62
		has_country_flag = command_telebei_campaign_activated_flag
	}
	
	R62_start_the_telebei_campaign = {
		icon = mission_assemble_an_army
		position = 2
		required_missions = {
			R62_the_war_room
		}
		
		trigger = {
			
		}
		
		effect = {
			
		}
	}
	
	R62_spirit_bastions = {
		icon = mission_assemble_an_army
		position = 3
		required_missions = {
			R62_start_the_telebei_campaign
		}
		
		trigger = {
			
		}
		
		effect = {
			
		}
	}
	
	R62_the_bom_empire = {
		icon = mission_assemble_an_army
		position = 4
		required_missions = {
			R62_the_kharunyana_fords
			R62_the_telebei_forts
		}
		
		trigger = {
			
		}
		
		effect = {
			
		}
	}
}

command_telebei_4 = {
	slot = 4
	generic = no
	ai = yes
	has_country_shield = yes
	potential = {
		tag = R62
		has_country_flag = command_telebei_campaign_activated_flag
	}
	
	R62_the_telebei_forts = {
		icon = mission_assemble_an_army
		position = 3
		required_missions = {
			R62_start_the_telebei_campaign
		}
		
		trigger = {
			
		}
		
		effect = {
			
		}
	}
	
	R62_no_harbouring_deserters = {
		icon = mission_assemble_an_army
		position = 4
		required_missions = {
			R62_the_telebei_forts
		}
		
		trigger = {
			
		}
		
		effect = {
			
		}
	}
}

command_hukai_2 = {
	slot = 2
	generic = no
	ai = yes
	has_country_shield = yes
	potential = {
		tag = R62
		has_country_flag = command_hukai_campaign_activated_flag
	}
	
	R62_geometric_warfare = {
		icon = mission_assemble_an_army
		position = 2
		
		trigger = {
			
		}
		
		effect = {
			
		}
	}
	
	R62_bom_climbers_employed = {
		icon = mission_assemble_an_army
		position = 3
		required_missions = {
			R62_start_the_hukai_campaign
		}
		
		trigger = {
			
		}
		
		effect = {
			
		}
	}
}

command_hukai_3 = {
	slot = 3
	generic = no
	ai = yes
	has_country_shield = yes
	potential = {
		tag = R62
		has_country_flag = command_hukai_campaign_activated_flag
	}
	
	R62_start_the_hukai_campaign = {
		icon = mission_assemble_an_army
		position = 2
		required_missions = {
			R62_the_war_room
		}
		
		trigger = {
			
		}
		
		effect = {
			
		}
	}
	
	R62_12_sides_shattered = {
		icon = mission_assemble_an_army
		position = 
		required_missions = {
			R62_start_the_hukai_campaign
		}
		
		trigger = {
			
		}
		
		effect = {
			
		}
	}
	
	R62_the_fortress_cities = {
		icon = mission_assemble_an_army
		position = 
		required_missions = {
			R62_12_sides_shattered
		}
		
		trigger = {
			
		}
		
		effect = {
			
		}
	}
}

command_sikai_2 = {
	slot = 2
	generic = no
	ai = yes
	has_country_shield = yes
	potential = {
		tag = R62
		has_country_flag = command_sikaicampaign_activated_flag
	}
	
	R62_no_hold_left_untouched = {
		icon = mission_assemble_an_army
		position = 3
		required_missions = {
			R62_start_the_sikai_campaign
		}
		
		trigger = {
			
		}
		
		effect = {
			
		}
	}
}

command_sikai_3 = {
	slot = 3
	generic = no
	ai = yes
	has_country_shield = yes
	potential = {
		tag = R62
		has_country_flag = command_sikaicampaign_activated_flag
	}
	
	R62_start_the_sikai_campaign = {
		icon = mission_assemble_an_army
		position = 2
		required_missions = {
			R62_the_war_room
		}
		
		trigger = {
			
		}
		
		effect = {
			
		}
	}
	
	R62_the_greatest_of_townships = {
		icon = mission_assemble_an_army
		position = 3
		required_missions = {
			R62_start_the_sikai_campaign
		}
		
		trigger = {
			
		}
		
		effect = {
			
		}
	}
	
	R62_the_base_of_the_phokai = {
		icon = mission_assemble_an_army
		position = 4
		required_missions = {
			R62_the_greatest_of_townships
		}
		
		trigger = {
			
		}
		
		effect = {
			
		}
	}
}

command_sikai_4 = {
	slot = 4
	generic = no
	ai = yes
	has_country_shield = yes
	potential = {
		tag = R62
		has_country_flag = command_sikaicampaign_activated_flag
	}
	
	R62_local_command_support_sikai = {
		icon = mission_assemble_an_army
		position = 2
		
		trigger = {
			
		}
		
		effect = {
			
		}
	}
}

command_baihon_xinh_2 = {
	slot = 2
	generic = no
	ai = yes
	has_country_shield = yes
	potential = {
		tag = R62
		has_country_flag = command_baihon_xinh_activated_flag
	}
}

command_baihon_xinh_3 = {
	slot = 3
	generic = no
	ai = yes
	has_country_shield = yes
	potential = {
		tag = R62
		has_country_flag = command_baihon_xinh_activated_flag
	}
	
	R62_start_the_baihon_xinh_campaign = {
		icon = mission_assemble_an_army
		position = 2
		required_missions = {
			R62_the_war_room
		}
		
		trigger = {
			
		}
		
		effect = {
			
		}
	}
	
	R62_baihon_xinh_middle = {
		icon = mission_assemble_an_army
		position = 
		required_missions = {
			R62_
		}
		
		trigger = {
			
		}
		
		effect = {
			
		}
	}
	
	R62_the_kai_empire = {
		icon = mission_assemble_an_army
		position = 
		required_missions = {
			R62_baihon_xinh_middle
		}
		
		trigger = {
			
		}
		
		effect = {
			
		}
	}
}

command_baihon_xinh_4 = {
	slot = 4
	generic = no
	ai = yes
	has_country_shield = yes
	potential = {
		tag = R62
		has_country_flag = command_baihon_xinh_activated_flag
	}
	
	R62_the_battle_of_ma_hoang = {
		icon = mission_assemble_an_army
		position = 
		required_missions = {
			R62_start_the_baihon_xinh_campaign
		}
		
		trigger = {
			
		}
		
		effect = {
			
		}
	}
}

command_thidinkai_2 = {
	slot = 2
	generic = no
	ai = yes
	has_country_shield = yes
	potential = {
		tag = R62
		has_country_flag = command_thidinkai_activated_flag
	}
}

command_thidinkai_3 = {
	slot = 3
	generic = no
	ai = yes
	has_country_shield = yes
	potential = {
		tag = R62
		has_country_flag = command_thidinkai_activated_flag
	}
	
	R62_start_the_thidinkai_campaign = {
		icon = mission_assemble_an_army
		position = 2
		required_missions = {
			R62_the_war_room
		}
		
		trigger = {
			
		}
		
		effect = {
			
		}
	}
	
	R62_thidinkai_campaign_middle = {
		icon = mission_assemble_an_army
		position = 3
		required_missions = {
			R62_start_the_thidinkai_campaign
		}
		
		trigger = {
			
		}
		
		effect = {
			
		}
	}
	
	R62_thidinkai_campaign_finished = {
		icon = mission_assemble_an_army
		position = 4
		required_missions = {
			R62_thidinkai_campaign_middle
		}
		
		trigger = {
			
		}
		
		effect = {
			
		}
	}
}

command_thidinkai_4 = {
	slot = 4
	generic = no
	ai = yes
	has_country_shield = yes
	potential = {
		tag = R62
		has_country_flag = command_thidinkai_activated_flag
	}
}

command_lupulan_2 = {
	slot = 2
	generic = no
	ai = yes
	has_country_shield = yes
	potential = {
		tag = R62
		has_country_flag = command_lupulan_activated_flag
	}
	
	R62_train_jungle_fighters = {
		icon = mission_assemble_an_army
		position = 2
		
		trigger = {
			
		}
		
		effect = {
			
		}
	}
}

command_lupulan_3 = {
	slot = 3
	generic = no
	ai = yes
	has_country_shield = yes
	potential = {
		tag = R62
		has_country_flag = command_lupulan_activated_flag
	}
	
	R62_start_the_lupulan_campaign = {
		icon = mission_assemble_an_army
		position = 2
		required_missions = {
			R62_the_war_room
		}
		
		trigger = {
			
		}
		
		effect = {
			
		}
	}
	
	R62_lupulan_campaign_middle = {
		icon = mission_assemble_an_army
		position = 3
		required_missions = {
			R62_start_the_lupulan_campaign
		}
		
		trigger = {
			
		}
		
		effect = {
			
		}
	}
	
	R62_lupulan_campaign_finished = {
		icon = mission_assemble_an_army
		position = 4
		required_missions = {
			R62_lupulan_campaign_middle
		}
		
		trigger = {
			
		}
		
		effect = {
			
		}
	}
}

command_lupulan_4 = {
	slot = 4
	generic = no
	ai = yes
	has_country_shield = yes
	potential = {
		tag = R62
		has_country_flag = command_lupulan_activated_flag
	}
}

command_arawkelin_2 = {
	slot = 2
	generic = no
	ai = yes
	has_country_shield = yes
	potential = {
		tag = R62
		has_country_flag = command_arawkelin_activated_flag
	}
}

command_arawkelin_3 = {
	slot = 3
	generic = no
	ai = yes
	has_country_shield = yes
	potential = {
		tag = R62
		has_country_flag = command_arawkelin_activated_flag
	}
	
	R62_start_the_arawkelin_campaign = {
		icon = mission_assemble_an_army
		position = 2
		required_missions = {
			R62_the_war_room
		}
		
		trigger = {
			
		}
		
		effect = {
			
		}
	}
	
	R62_arawkelin_campaign_middle = {
		icon = mission_assemble_an_army
		position = 3
		required_missions = {
			R62_start_the_arawkelin_campaign
		}
		
		trigger = {
			
		}
		
		effect = {
			
		}
	}
	
	R62_arawkelin_campaign_finished = {
		icon = mission_assemble_an_army
		position = 4
		required_missions = {
			R62_arawkelin_campaign_middle
		}
		
		trigger = {
			
		}
		
		effect = {
			
		}
	}
}

command_arawkelin_4 = {
	slot = 4
	generic = no
	ai = yes
	has_country_shield = yes
	potential = {
		tag = R62
		has_country_flag = command_arawkelin_activated_flag
	}
}

command_yanszin_2 = {
	slot = 2
	generic = no
	ai = yes
	has_country_shield = yes
	potential = {
		tag = R62
		has_country_flag = command_yanszin_activated_flag
	}
	
	R62_the_battle_of_the_great_lake = {
		icon = mission_assemble_an_army
		position = 3
		required_missions = {
			R62_start_the_yanszin_campaign
		}
		
		trigger = {
			
		}
		
		effect = {
			
		}
	}
}

command_yanszin_3 = {
	slot = 3
	generic = no
	ai = yes
	has_country_shield = yes
	potential = {
		tag = R62
		has_country_flag = command_yanszin_activated_flag
	}
	
	R62_start_the_yanszin_campaign = {
		icon = mission_assemble_an_army
		position = 2
		required_missions = {
			R62_the_war_room
		}
		
		trigger = {
			
		}
		
		effect = {
			
		}
	}
	
	R62_league_no_longer = {
		icon = mission_assemble_an_army
		position = 3
		required_missions = {
			R62_start_the_yanszin_campaign
		}
		
		trigger = {
			
		}
		
		effect = {
			
		}
	}
	
	R62_the_middle_yan = {
		icon = mission_assemble_an_army
		position = 4
		required_missions = {
			R62_league_no_longer
		}
		
		trigger = {
			
		}
		
		effect = {
			
		}
	}
}

command_yanszin_4 = {
	slot = 4
	generic = no
	ai = yes
	has_country_shield = yes
	potential = {
		tag = R62
		has_country_flag = command_yanszin_activated_flag
	}
	
	R62_expert_mathematicians = {
		icon = mission_assemble_an_army
		position = 
		required_missions = {
			R62_league_no_longer
		}
		
		trigger = {
			
		}
		
		effect = {
			
		}
	}
}

command_xianjie_2 = {
	slot = 2
	generic = no
	ai = yes
	has_country_shield = yes
	potential = {
		tag = R62
		has_country_flag = command_xianjie_activated_flag
	}
}

command_xianjie_3 = {
	slot = 3
	generic = no
	ai = yes
	has_country_shield = yes
	potential = {
		tag = R62
		has_country_flag = command_xianjie_activated_flag
	}
	
	R62_start_the_xianjie_campaign = {
		icon = mission_assemble_an_army
		position = 2
		required_missions = {
			R62_the_war_room
		}
		
		trigger = {
			
		}
		
		effect = {
			
		}
	}
	
	R62_xianjie_campaign_middle = {
		icon = mission_assemble_an_army
		position = 3
		required_missions = {
			R62_start_the_xianjie_campaign
		}
		
		trigger = {
			
		}
		
		effect = {
			
		}
	}
	
	R62_xianjie_campaign_finished = {
		icon = mission_assemble_an_army
		position = 4
		required_missions = {
			R62_xianjie_campaign_middle
		}
		
		trigger = {
			
		}
		
		effect = {
			
		}
	}
}

command_xianjie_4 = {
	slot = 4
	generic = no
	ai = yes
	has_country_shield = yes
	potential = {
		tag = R62
		has_country_flag = command_xianjie_activated_flag
	}
}

command_zyujyut_2 = {
	slot = 2
	generic = no
	ai = yes
	has_country_shield = yes
	potential = {
		tag = R62
		has_country_flag = command_zyujyut_activated_flag
	}
	
	R62_ambition_and_talent = {
		icon = mission_assemble_an_army
		position = 
		required_missions = {
			R62_that_was_just_the_beginning
		}
		
		trigger = {
			
		}
		
		effect = {
			
		}
	}
}

command_zyujyut_3 = {
	slot = 3
	generic = no
	ai = yes
	has_country_shield = yes
	potential = {
		tag = R62
		has_country_flag = command_zyujyut_activated_flag
	}
	
	R62_start_the_zyujyut_campaign = {
		icon = mission_assemble_an_army
		position = 2
		required_missions = {
			R62_the_war_room
		}
		
		trigger = {
			
		}
		
		effect = {
			
		}
	}
	
	R62_that_was_just_the_beginning = {
		icon = mission_assemble_an_army
		position = 3
		required_missions = {
			R62_start_the_zyujyut_campaign
		}
		
		trigger = {
			
		}
		
		effect = {
			
		}
	}
	
	R62_southern_yanshen = {
		icon = mission_assemble_an_army
		position = 4
		required_missions = {
			R62_that_was_just_the_beginning
		}
		
		trigger = {
			
		}
		
		effect = {
			
		}
	}
}

command_tianlou_2 = {
	slot = 2
	generic = no
	ai = yes
	has_country_shield = yes
	potential = {
		tag = R62
		has_country_flag = command_tianlou_activated_flag
	}
	
	R62_local_command_support_tianlou = {
		icon = mission_assemble_an_army
		position = 2
		
		trigger = {
			
		}
		
		effect = {
			
		}
	}
	
	R62_the_siegeworks_of_tianlou = {
		icon = mission_assemble_an_army
		position = 3
		required_missions = {
			R62_local_command_support_tianlou
		}
		
		trigger = {
			
		}
		
		effect = {
			
		}
	}
}

command_tianlou_3 = {
	slot = 3
	generic = no
	ai = yes
	has_country_shield = yes
	potential = {
		tag = R62
		has_country_flag = command_tianlou_activated_flag
	}
	
	R62_start_the_tianlou_campaign = {
		icon = mission_assemble_an_army
		position = 2
		required_missions = {
			R62_the_war_room
		}
		
		trigger = {
			
		}
		
		effect = {
			
		}
	}
	
	R62_warlords_fallen_to_warlords = {
		icon = mission_assemble_an_army
		position = 3
		required_missions = {
			R62_start_the_tianlou_campaign
		}
		
		trigger = {
			
		}
		
		effect = {
			
		}
	}
	
	R62_the_temple_city = {
		icon = mission_assemble_an_army
		position = 4
		required_missions = {
			R62_warlords_fallen_to_warlords
		}
		
		trigger = {
			
		}
		
		effect = {
			
		}
	}
}

command_tianlou_4 = {
	slot = 4
	generic = no
	ai = yes
	has_country_shield = yes
	potential = {
		tag = R62
		has_country_flag = command_tianlou_activated_flag
	}
	
	R62_the_battle_of_shengdao = {
		icon = mission_assemble_an_army
		position = 3
		required_missions = {
			R62_start_the_tianlou_campaign
		}
		
		trigger = {
			
		}
		
		effect = {
			
		}
	}
}

command_jiantsiang_2 = {
	slot = 2
	generic = no
	ai = yes
	has_country_shield = yes
	potential = {
		tag = R62
		has_country_flag = command_jiantsiang_activated_flag
	}
}

command_jiantsiang_3 = {
	slot = 3
	generic = no
	ai = yes
	has_country_shield = yes
	potential = {
		tag = R62
		has_country_flag = command_jiantsiang_activated_flag
	}
	
	R62_start_the_jiantsiang_campaign = {
		icon = mission_assemble_an_army
		position = 2
		required_missions = {
			R62_the_war_room
		}
		
		trigger = {
			
		}
		
		effect = {
			
		}
	}
	
	R62_the_march_north = {
		icon = mission_assemble_an_army
		position = 3
		required_missions = {
			R62_start_the_jiantsiang_campaign
		}
		
		trigger = {
			
		}
		
		effect = {
			
		}
	}
	
	R62_the_borderlands = {
		icon = mission_assemble_an_army
		position = 4
		required_missions = {
			R62_the_march_north
		}
		
		trigger = {
			
		}
		
		effect = {
			
		}
	}
}

command_jiantsiang_4 = {
	slot = 4
	generic = no
	ai = yes
	has_country_shield = yes
	potential = {
		tag = R62
		has_country_flag = command_jiantsiang_activated_flag
	}
}

command_tree_of_stone_2 = {
	slot = 2
	generic = no
	ai = yes
	has_country_shield = yes
	potential = {
		tag = R62
		has_country_flag = command_tree_of_stone_activated_flag
	}
}

command_tree_of_stone_3 = {
	slot = 3
	generic = no
	ai = yes
	has_country_shield = yes
	potential = {
		tag = R62
		has_country_flag = command_tree_of_stone_activated_flag
	}
	
	R62_start_the_tree_of_stone_campaign = {
		icon = mission_assemble_an_army
		position = 2
		required_missions = {
			R62_the_war_room
		}
		
		trigger = {
			
		}
		
		effect = {
			
		}
	}
	
	R62_tree_of_stone_campaign_middle = {
		icon = mission_assemble_an_army
		position = 3
		required_missions = {
			R62_start_the_tree_of_stone_campaign
		}
		
		trigger = {
			
		}
		
		effect = {
			
		}
	}
	
	R62_tree_of_stone_campaign_finished = {
		icon = mission_assemble_an_army
		position = 4
		required_missions = {
			R62_tree_of_stone_campaign_middle
		}
		
		trigger = {
			
		}
		
		effect = {
			
		}
	}
}

command_tree_of_stone_4 = {
	slot = 4
	generic = no
	ai = yes
	has_country_shield = yes
	potential = {
		tag = R62
		has_country_flag = command_tree_of_stone_activated_flag
	}
}

command_azjakuma_2 = {
	slot = 2
	generic = no
	ai = yes
	has_country_shield = yes
	potential = {
		tag = R62
		has_country_flag = command_azjakuma_activated_flag
	}
}

command_azjakuma_3 = {
	slot = 3
	generic = no
	ai = yes
	has_country_shield = yes
	potential = {
		tag = R62
		has_country_flag = command_azjakuma_activated_flag
	}
	
	R62_start_the_azjakuma_campaign = {
		icon = mission_assemble_an_army
		position = 2
		required_missions = {
			R62_the_war_room
		}
		
		trigger = {
			
		}
		
		effect = {
			
		}
	}
	
	R62_azjakuma_campaign_middle = {
		icon = mission_assemble_an_army
		position = 3
		required_missions = {
			R62_start_the_azjakuma_campaign
		}
		
		trigger = {
			
		}
		
		effect = {
			
		}
	}
	
	R62_azjakuma_campaign_finished = {
		icon = mission_assemble_an_army
		position = 4
		required_missions = {
			R62_azjakuma_campaign_middle
		}
		
		trigger = {
			
		}
		
		effect = {
			
		}
	}
}

command_azjakuma_4 = {
	slot = 4
	generic = no
	ai = yes
	has_country_shield = yes
	potential = {
		tag = R62
		has_country_flag = command_azjakuma_activated_flag
	}
}


#Normal Missions
command_1 = {
	slot = 1
	generic = no
	ai = yes
	has_country_shield = yes
	potential = {
		tag = R62
	}
	
	R62_the_marching_of_boots = {
		icon = mission_assemble_an_army
		position = 2
		required_missions = {
			R62_the_war_room
		}
		
		trigger = {
			#! complete 5 campaigns
		}
		
		effect = {
			add_country_modifier = {
				name = command_on_the_march_1
				duration = -1
			}
		}
	}
	
	R62_the_beating_of_drums = {
		icon = mission_assemble_an_army
		position = 3
		required_missions = {
			R62_the_marching_of_boots
		}
		
		trigger = {
			#! complete 10 campaigns
		}
		
		effect = {
			remove_country_modifier = name = command_on_the_march_1
			add_country_modifier = {
				name = command_on_the_march_2
				duration = -1
			}
		}
	}
	
	R62_the_howling_of_horns = {
		icon = mission_assemble_an_army
		position = 4
		required_missions = {
			R62_the_beating_of_drums
		}
		
		trigger = {
			#! complete 20 campaigns
		}
		
		effect = {
			remove_country_modifier = name = command_on_the_march_2
			add_country_modifier = {
				name = command_on_the_march_3
				duration = -1
			}
		}
	}
	
	R62_serpentsbloom_rations = {
		icon = mission_assemble_an_army
		position = 5
		
		trigger = {
			adm_power = 100
			dip_power = 100
			treasury = 100
		}
		
		effect = {
			add_adm_power = -100
			add_dip_power = -100
			add_treasury = -100
			every_owned_province = {
				limit = {
					trade_goods = serpentbloom
				}
				add_province_modifier = {
					name = command_expanded_estates
					duration = 9125
				}
			}
		}
	}
	
	R62_control_the_zanyu_kinunin = {
		icon = mission_assemble_an_army
		position = 8
		
		trigger = {
			#! moved each orcish slave state 3 times
			R63 = { #Thunderfist
				is_subject_of = ROOT
				is_subject_of_type = slave_state
				NOT = { liberty_desire = 50 }
			}
			R64 = { #Bloodsong
				is_subject_of = ROOT
				is_subject_of_type = slave_state
				NOT = { liberty_desire = 50 }
			}
			#bypass if you loose the slave states in war or something?
		}
		
		effect = {
			
		}
	}
	
	R62_blades_and_spades = {
		icon = mission_assemble_an_army
		position = 10
		required_missions = {
			R62_control_the_zanyu_kinunin
		}
		
		trigger = {
			num_of_owned_provinces_with {
				value = 6
				OR = {
					trade_goods = grain
					trade_goods = livestock
				}
				has_orcish_minority_trigger = yes
			}
		}
		
		effect = {
			add_country_modifier = {
				name = command_swords_and_dumplings
				duration = 7300
			}
		}
	}
	
	R62_tempered_rage = {
		icon = mission_assemble_an_army
		position = 12
		required_missions = {
			R62_blades_and_spades
		}
		
		trigger = {
			num_of_owned_provinces_with {
				value = 10
				has_half_orcish_minority_trigger = yes
			}
		}
		
		effect = {
			
		}
	}
	
	R62_honourable_half_orcs = {
		icon = mission_assemble_an_army
		position = 15
		required_missions = {
			R62_tempered_rage
			R62_the_wuhyun
		}
		
		trigger = {
			#! Have the "Laws of Ninun" edict in a province with large half-orc minorities
		}
		
		effect = {
			#! One applicable province switches to Wuhyun Half-Orc. Wuhyun Half-Orc culture can now appear
		}
	}
	
	R62_new_schools_of_thought = {
		icon = mission_assemble_an_army
		position = 16
		required_missions = {
			R62_permit_debate
		}
		
		trigger = {
			philosopher = 3
			#! 5 different HP school origins are godlost (province group?)
		}
		
		effect = {
			
		}
	}
	
	R62_teach_and_learn = {
		icon = mission_assemble_an_army
		position = 18
		required_missions = {
			R62_new_schools_of_thought
		}
		
		trigger = {
			num_of_owned_provinces_with = {
				value = 40
				religion = godlost
			}
			num_of_owned_provinces_with = {
				value = 80
				#! has school
			}
		}
		
		effect = {
			#event "School Curriculums"
		}
	}
	
	R62_philosophy_of_state_and_blood = {
		icon = mission_assemble_an_army
		position = 20
		required_missions = {
			R62_teach_and_learn
		}
		
		trigger = {
			
		}
		
		effect = {
			#! unlock "Nationalist Teachings"
		}
	}
	
	R62_a_good_marshal = {
		icon = mission_assemble_an_army
		position = 21
		required_missions = {
			R62_philosophy_of_state_and_blood
		}
		
		trigger = {
			
		}
		
		effect = {
			
		}
	}
	
	R62_virtues_embodied = {
		icon = mission_assemble_an_army
		position = 23
		required_missions = {
			R62_a_good_marshal
		}
		
		trigger = {
			mil = 6
			adm = 6
			legitimacy = 100
			#+???
		}
		
		effect = {
			
		}
	}
}

command_2 = {
	slot = 2
	generic = no
	ai = yes
	has_country_shield = yes
	potential = {
		tag = R62
	}
	
	R62_secure_messengers = {
		icon = mission_assemble_an_army
		position = 5
		
		trigger = {
			estate_loyalty = {
				estate = estate_wolf_command
				loyalty = 50
			}
			advisor = quartermaster
			mil_power = 100
		}
		
		effect = {
			add_mil_power = -100
			add_country_modifier = {
				name = command_secure_supply_lines
				duration = 9125
			}
		}
	}
	
	R62_supply_the_kikunin = {
		icon = mission_assemble_an_army
		position = 6
		required_missions = {
			R62_serpentsbloom_rations
			R62_secure_messengers
		}
		
		trigger = {
			num_of_owned_provinces_with {
				value = 5
				region = shamakhad_region
				has_supply_depot = ROOT
			}
		}
		
		effect = {
			
		}
	}
	
	R62_calm_down_sir = {
		icon = mission_assemble_an_army
		position = 7
		
		provinces_to_highlight = {
			owned_by = ROOT
			controlled_by = REB
		}
		
		trigger = {
			is_year = 1446
			NOT = {
				num_of_rebel_controlled_provinces = 1
			}
		}
		
		effect = {
			add_stability_or_adm_power = yes
		}
	}
	
	R62_disarming_the_conquered = {
		icon = mission_assemble_an_army
		position = 8
		required_missions = {
			R62_calm_down_sir
		}
		
		provinces_to_highlight = {
			region = shamakhad_region
			unrest = 0
		}
		
		trigger = {
			NOT = {
				any_owned_province = {
					AND = {
						region = shamakhad_region
						unrest = 0
					}
				}
			}
		}
		
		effect = {
			set_estate_privilege = estate_gerunanin_disarmed_populance
		}
	}
	
	R62_strange_yet_familiar = {
		icon = mission_assemble_an_army
		position = 10
		required_missions = {
			R62_disarming_the_conquered
		}
		
		provinces_to_highlight = {
			if = {
				limit = {
					NOT = {
						owns = 4474 #Kamapar
						4474 = { religion = godlost }
					}
				}
				province_id = 4474 #Kamapar
			}
		}
		
		trigger = {
			owns = 4474 #Kamapar
			4474 = { religion = godlost }
		}
		
		effect = {
			#event "Similar Philosophies"
		}
	}
	
	R62_an_exaltation_of_man = {
		icon = mission_assemble_an_army
		position = 13
		required_missions = {
			R62_strange_yet_familiar
		}
		
		trigger = {
			#event "Human Proves Honour" has happened, follow Lenient teachings
		}
		
		effect = {
			add_country_modifier = {
				name = command_shifting_standards
				duration = 7300
			}
		}
	}
	
	R62_permit_debate = {
		icon = mission_assemble_an_army
		position = 15
		required_missions = {
			R62_an_exaltation_of_man
		}
		
		trigger = {
			num_of_owned_provinces_with {
				value = 25
				culture_is_human = yes
				#! has school
			}
		}
		
		effect = {
			
		}
	}
	
	R62_children_of_the_kusonin = {
		icon = mission_assemble_an_army
		position = 16
		required_missions = {
			R62_laws_of_ninun
		}
		
		trigger = {
			num_of_owned_provinces_with = {
				value = 15
				culture = kusonin
			}
		}
		
		effect = {
			
		}
	}
	
	R62_adoptive_clans = {
		icon = mission_assemble_an_army
		position = 19
		required_missions = {
			R62_the_burden_of_empire
		}
		
		trigger = {
			NOT = { manpower_percentage = 0.2 }
			NOT = { any_owned_province = { has_construction = army } }
			government_reform_progress = 100
		}
		
		effect = {
			#event "Clan Adoption", this can now happen more often
		}
	}
	
	R62_the_ten_reforms = {
		icon = mission_assemble_an_army
		position = 21
		required_missions = {
			R62_philosophy_of_state_and_blood
			R62_adoptive_clans
			R62_the_act_of_division
		}
		
		trigger = {
			estate_loyalty = {
				estate = estate_wolf_command
				loyalty = 60
			}
			estate_loyalty = {
				estate = estate_boar_command
				loyalty = 60
			}
			estate_loyalty = {
				estate = estate_lion_command
				loyalty = 60
			}
			government_reform_progress = 100
			#! follow "Nationalist Teachings"
		}
		
		effect = {
			#eventchain "Implementing the Ten Reforms"
		}
	}
	
	R62_the_marshals_dilemma = {
		icon = mission_assemble_an_army
		position = 22
		required_missions = {
			R62_a_good_marshal
			R62_the_ten_reforms
		}
		
		trigger = {
			
		}
		
		effect = {
			
		}
	}
	
	R62_strengthen_the_ninyu_kikun = {
		icon = mission_assemble_an_army
		position = 24
		required_missions = {
			R62_the_marshals_dilemma
		}
		
		trigger = {
			
		}
		
		effect = {
			
		}
	}
	
	R62_empty = {
		icon = mission_assemble_an_army
		position = 25
		required_missions = {
			R62_strengthen_the_ninyu_kikun
		}
		
		trigger = {
			
		}
		
		effect = {
			
		}
	}
}

command_3 = {
	slot = 3
	generic = no
	ai = yes
	has_country_shield = yes
	potential = {
		tag = R62
	}
	
	R62_the_support_of_the_marshals = {
		icon = mission_assemble_an_army
		position = 5
		
		trigger = {
			estate_loyalty = {
				estate = estate_wolf_command
				loyalty = 60
			}
			estate_loyalty = {
				estate = estate_boar_command
				loyalty = 60
			}
			estate_loyalty = {
				estate = estate_lion_command
				loyalty = 60
			}
			if = {
				limit = {
					has_estate = estate_tiger_command
				}
				estate_loyalty = {
					estate = estate_tiger_command
					loyalty = 60
				}
			}
			if = {
				limit = {
					has_estate = estate_elephant_command
				}
				estate_loyalty = {
					estate = estate_elephant_command
					loyalty = 60
				}
			}
			if = {
				limit = {
					has_estate = estate_dragon_command
				}
				estate_loyalty = {
					estate = estate_dragon_command
					loyalty = 60
				}
			}
		}
		
		effect = {
			add_country_modifier = {
				name = command_support_of_the_marshals
				duration = 3650
			}
		}
	}
	
	R62_build_new_households = {
		icon = mission_assemble_an_army
		position = 6
		required_missions = {
			R62_the_support_of_the_marshals
		}
		
		trigger = {
			num_of_owned_provinces_with = {
				value = 20
				region = shamakhad_region
				has_manpower_building_trigger = yes
			}
			4635 = { #Khanamohri
				owned_by = ROOT
				has_manpower_building_trigger = yes
			}
		}
		
		effect = {
			add_country_modifier = {
				name = command_preparing_homesteads
				duration = 3650
			}
		}
	}
	
	R62_moving_camp = {
		icon = mission_assemble_an_army
		position = 7
		required_missions = {
			R62_supply_the_kikunin
			R62_build_new_households
		}
		
		trigger = {
			is_at_war = no
			NOT = {
				has_country_modifier = command_preparing_homesteads
			}
		}
		
		effect = {
			#eventchain "Moving Camp"
		}
	}
	
	R62_digging_in = {
		icon = mission_assemble_an_army
		position = 10
		required_missions = {
			R62_moving_camp
		}
		
		trigger = {
			num_of_owned_provinces_with = {
				value = 10
				region = shamakhad_region
				has_fort_building_trigger = yes
			}
			#fort building in each warcamp
		}
		
		effect = {
			#20 manpower dev distributed over hobgoblin provinces
		}
	}
	
	R62_a_changing_diet = {
		icon = mission_assemble_an_army
		position = 11
		required_missions = {
			R62_chains_for_blades_chains_for_spades
			R62_digging_in
		}
		
		provinces_to_highlight = {
			if = {
				limit = { 
					NOT = {
						num_of_owned_provinces_with = {
							value = 10
							trade_goods = grain
							base_production = 5
							has_building = farm_estate
						}
					}
				}
				owned_by = ROOT
				trade_goods = grain
				NOT = { base_production = 5 }
				NOT = { has_building = farm_estate }
			}
		}
		
		trigger = {
			num_of_owned_provinces_with = {
				value = 10
				trade_goods = grain
				base_production = 5
				has_building = farm_estate
			}
		}
		
		effect = {
			add_country_modifier = {
				name = command_reacclimatising_to_the_surface
				duration = 9125
			}
		}
	}
	
	R62_life_under_the_sun = {
		icon = mission_assemble_an_army
		position = 12
		required_missions = {
			R62_a_changing_diet
		}
		
		trigger = {
			NOT = { has_country_modifier = command_reacclimatising_to_the_surface }
			stability = 3
		}
		
		effect = {
			#event "Life under the Sun"
		}
	}
	
	R62_the_wuhyun = {
		icon = mission_assemble_an_army
		position = 14
		required_missions = {
			R62_an_exaltation_of_man
			R62_misty_drills
		}
		
		trigger = {
			NOT = { has_country_modifier = command_shifting_standards }
			estate_influence = {
				estate = estate_gerunanin
				influence = 40
			}
			estate_loyalty = {
				estate = estate_gerunanin
				loyalty = 50
			}
		}
		
		effect = {
			xianjie_region = {
				#change 3 provinces to wuhyun culture
			}
		}
	}
	
	R62_laws_of_ninun = {
		icon = mission_assemble_an_army
		position = 15
		required_missions = {
			R62_the_wuhyun
		}
		
		trigger = {
			dip_power = 100
			#follow strict teachings
		}
		
		effect = {
			add_dip_power = -100
			#unlock "Laws of Ninun"
		}
	}
	
	R62_warriors_of_the_kintonan = {
		icon = mission_assemble_an_army
		position = 16
		required_missions = {
			R62_laws_of_ninun
		}
		
		trigger = {
			num_of_owned_provinces_with = {
				value = 15
				culture = kintonan
			}
		}
		
		effect = {
			add_country_modifier = {
				name = command_shinobi
				duration = -1
			}
		}
	}
	
	R62_wuhyun_kikun = {
		icon = mission_assemble_an_army
		position = 17
		required_missions = {
			R62_children_of_the_kusonin
			R62_warriors_of_the_kintonan
			R62_guards_of_the_ikaniwagain
		}
		
		trigger = {
			mil_power = 100
			estate_influence = {
				estate = estate_wuhyun
				influence = 40
			}
			estate_loyalty = {
				estate = estate_wuhyun
				loyalty = 60
			}
		}
		
		effect = {
			#the highest dev province of each human Wuhyun culture gains a warcamp province modifier, 2 manpower and spawns a 12/2/10 army
		}
	}
	
	R62_the_burden_of_empire = {
		icon = mission_assemble_an_army
		position = 18
		
		trigger = {
			total_development = 1000
		}
		
		effect = {
			add_estate_influence_modifier = {
				estate = estate_wolf_command
				desc = COMMAND_BURDEN_OF_EMPIRE
				influence = 5
				duration = 18250
			}
			add_estate_influence_modifier = {
				estate = estate_boar_command
				desc = COMMAND_BURDEN_OF_EMPIRE
				influence = 5
				duration = 18250
			}
			add_estate_influence_modifier = {
				estate = estate_lion_command
				desc = COMMAND_BURDEN_OF_EMPIRE
				influence = 5
				duration = 18250
			}
			add_adm_power = 150
		}
	}
	
	R62_the_act_of_division = {
		icon = mission_assemble_an_army
		position = 20
		required_missions = {
			R62_the_burden_of_empire
		}
		
		trigger = {
			estate_loyalty = {
				estate = estate_wolf_command
				loyalty = 60
			}
			estate_loyalty = {
				estate = estate_boar_command
				loyalty = 60
			}
			estate_loyalty = {
				estate = estate_lion_command
				loyalty = 60
			}
			OR = {
				government_reform_progress = 200
				full_idea_group = administrative_ideas
			}
			government_reform_progress = 100
			stability = 3
		}
		
		effect = {
			#gain access to "The Act of Division" privilege
		}
	}
	
	R62_the_tiger_command = {
		icon = mission_assemble_an_army
		position = 21
		required_missions = {
			R62_the_act_of_division
			R62_the_great_warcamps
		}
		
		trigger = {
			owns_core_province = 4504 #Rayavhatimana
			crown_land_share = 50
			#TODO check if you can complete all three command missions at the same time
		}
		
		effect = {
			4504 = { #Rayavhatimana
				add_province_modifier = {
					name = command_tiger_warcamp
					duration = -1
				}
			} 
			#unlock tiger command
			#tiger command gets 10 land, need to test if this works since it takes a month tick sometimes
			change_estate_land_share = {
				estate = estate_tiger_command
				share = 10
			}
		}
	}
	
	R62_X1 = {
		icon = mission_assemble_an_army
		position = 22
		required_missions = {
			R62_the_tiger_command
		}
		
		trigger = {
			
		}
		
		effect = {
			
		}
	}
	
	R62_X2 = {
		icon = mission_assemble_an_army
		position = 23
		required_missions = {
			R62_X1
		}
		
		trigger = {
			
		}
		
		effect = {
			
		}
	}
	
	R62_shackled_claws = { #Hide until disaster happens?
		icon = mission_assemble_an_army
		position = 24
		
		trigger = {
			#have dealt with the tiger command in the great shattering
		}
		
		effect = {
			
		}
	}
	
	R62_one_great_command = {
		icon = mission_assemble_an_army
		position = 26
		required_missions = {
			R62_empty
			R62_loyalty_enforced
		}
		
		provinces_to_highlight = {
			NOT = { owned_by = ROOT }
			OR = {
				superregion = rahen_superregion
				superregion = yanshen_superregion
				superregion = south_haless_superregion
			}
		}
		
		trigger = {
			rahen_superregion = {
				type = all
				owned_by = ROOT
			}
			yanshen_superregion = {
				type = all
				owned_by = ROOT
			}
			south_haless_superregion = {
				type = all
				owned_by = ROOT
			}
			#more?
		}
		
		effect = {
			
		}
	}
	
	R62_the_edict_of_x = {
		icon = mission_assemble_an_army
		position = 27
		required_missions = {
			R62_one_great_command
		}
		
		trigger = {
			
		}
		
		effect = {
			
		}
	}
}

command_4 = {
	slot = 4
	generic = no
	ai = yes
	has_country_shield = yes
	potential = {
		tag = R62
	}
	
	R62_cursed_temples = {
		icon = mission_assemble_an_army
		position = 5
		required_missions = {
			R62_a_question_of_allegiance
		}
		
		trigger = {
			num_of_provinces_owned_or_owned_by_non_sovereign_subjects_with = {
				value = 3
				has_province_modifier = damaged_temple_complex
			}
			OR = {
				alliance_with = Y01
				Y01 = { is_subject_of = ROOT }
			}
		}
		
		effect = {
			#event "End the Temple's Curse"
		}
	}
	
	R62_prepare_new_stewards = {
		icon = mission_assemble_an_army
		position = 6
		
		trigger = {
			adm_power = 100
			num_of_diplomats = 1
			num_of_missionaries = 1
		}
		
		effect = {
			#event "the Governance of the Mines"
		}
	}
	
	R62_warbringer_peacemaker = {
		icon = mission_assemble_an_army
		position = 7
		required_missions = {
			R62_prepare_new_stewards
		}
		
		trigger = {
			#! tension in Jade Mines less than 10
			R65 = { #Blackstep
				is_subject_of = ROOT
				is_subject_of_type = slave_state
				NOT = { liberty_desire = 50 }
			}
			R66 = { #Stolen Gem
				is_subject_of = ROOT
				is_subject_of_type = slave_state
				NOT = { liberty_desire = 50 }
			}
		}
		
		effect = {
			#! Jade rivalry will end
		}
	}
	
	R62_the_jade_march = {
		icon = mission_assemble_an_army
		position = 8
		required_missions = {
			R62_moving_camp
			R62_warbringer_peacemaker
		}
		
		trigger = {
			NOT = {
				jade_mines_region = {
					any_province = {
						culture_is_hobgoblin = yes
					}
				}
			}
		}
		
		effect = {
			#! merged goblin state owning all the jade mines
		}
	}
	
	R62_deep_mithril_mining = {
		icon = mission_assemble_an_army
		position = 10
		required_missions = {
			R62_the_jade_march
		}
		
		trigger = {
			#! mithril provinces with total of 20 dev
			OR = {
				any_owned_province = {
					trade_goods = mithril
					base_production = 8
				}
				any_subject_country = {
					any_owned_province = {
						trade_goods = mithril
						base_production = 8
					}
				}
			}
		}
		
		effect = {
			add_country_modifier = {
				name = command_mithril_weaponry
				duration = 7300
			}
		}
	}
	
	R62_the_mithril_forge = {
		icon = mission_assemble_an_army
		position = 12
		required_missions = {
			R62_deep_mithril_mining
			R62_the_sarilavhan_foundries
		}
		
		trigger = {
			#! mithril provinces with total of 50 dev
			owns = 4630 #Sarilavhan
			OR = {
				any_owned_province = {
					trade_goods = mithril
					base_production = 8
				}
				any_subject_country = {
					any_owned_province = {
						trade_goods = mithril
						base_production = 8
					}
				}
			}
		}
		
		effect = {
			4630 = { #Sarilavhan
				add_permanent_province_modifier = {
					name = command_the_mithril_forge
					duration = -1
				}
			}
		}
	}
	
	R62_misty_drills = {
		icon = mission_assemble_an_army
		position = 13
		
		trigger = {
			#! completed xiandao campaign
			num_of_owned_provinces_with = {
				value = 10
				region = xianjie_region
				has_manpower_building_trigger = yes
			}
		}
		
		effect = {
			#event "The Expertise of the Xiaken Temples"
		}
	}
	
	R62_the_nature_of_chi = {
		icon = mission_assemble_an_army
		position = 14
		required_missions = {
			R62_misty_drills
		}
		
		trigger = {
			#! completed xianjie campaign
			owns = 4559 #xiadao
			philosopher = 2
		}
		
		effect = {
			#event "The Legality of Chi Practises"
		}
	}
	
	R62_guards_of_the_ikaniwagain = {
		icon = mission_assemble_an_army
		position = 16
		required_missions = {
			R62_laws_of_ninun
		}
		
		trigger = {
			num_of_owned_provinces_with = {
				value = 15
				culture = ikaniwagain
			}
		}
		
		effect = {
			
		}
	}
	
	R62_spread_garrisons = {
		icon = mission_assemble_an_army
		position = 19
		required_missions = {
			R62_the_burden_of_empire
		}
		
		trigger = {
			num_of_owned_provinces_with = {
				value = 10
				NOT = { region = shamakhad_region }
				has_fort_building_trigger = yes
				has_supply_depot = yes
			}
		}
		
		effect = {
			#! specified provinces get hobgoblin minority if not preset. If below 6 dev or lower -> hobgoblin majority
		}
	}
	
	R62_the_great_warcamps = {
		icon = mission_assemble_an_army
		position = 20
		required_missions = {
			R62_spread_garrisons
		}
		
		provinces_to_highlight = {
			OR = {
				province_id = 4952 #Chatzin
				province_id = 4504 #Rayavhatimana
				province_id = 4613 #Zhaoyun
			}
			OR = {
				NOT = { owned_by = ROOT }
				NOT = { is_core = ROOT }
				has_supply_depot = no
			}
		}
		
		trigger = {
			adm_power = 50
			dip_power = 50
			mil_power = 50
			4952 = { #Chatzin
				owned_by = ROOT
				is_core = ROOT
				has_supply_depot = yes
			}
			4504 = { #Rayavhatimana
				owned_by = ROOT
				is_core = ROOT
				has_supply_depot = yes
			}
			4613 = { #Zhaoyun
				owned_by = ROOT 
				is_core = ROOT
				has_supply_depot = yes
			}
		}
		
		effect = {
			add_adm_power = -50
			add_dip_power = -50
			add_mil_power = -50
			4952 = { #Chatzin
				add_base_manpower = 5
				add_base_tax = 1
			}
			4504 = { #Rayavhatimana
				add_base_manpower = 5
				add_base_tax = 1
			}
			4613 = { #Zhaoyun
				add_base_manpower = 5
				add_base_tax = 1
			}
		}
	}
	
	R62_the_elephant_command = {
		icon = mission_assemble_an_army
		position = 21
		required_missions = {
			R62_the_act_of_division
			R62_the_great_warcamps
		}
		
		trigger = {
			owns_core_province = 4613 #Zhaoyun
			crown_land_share = 50
			#TODO check if you can complete all three command missions at the same time
		}
		
		effect = {
			4613 = { #Zhaoyun
				add_province_modifier = {
					name = command_elephant_warcamp
					duration = -1
				}
			} 
			#! unlock elephant command
			# elephant command gets 10 land, need to test if this works since it takes a month tick sometimes
			change_estate_land_share = {
				estate = estate_elephant_command
				share = 10
			}
		}
	}
	
	R62_X3 = {
		icon = mission_assemble_an_army
		position = 22
		required_missions = {
			R62_the_elephant_command
		}
		
		trigger = {
			
		}
		
		effect = {
			
		}
	}
	
	R62_X4 = {
		icon = mission_assemble_an_army
		position = 23
		required_missions = {
			R62_X3
		}
		
		trigger = {
			
		}
		
		effect = {
			
		}
	}
	
	R62_blunted_tusks = {
		icon = mission_assemble_an_army
		position = 24
		
		trigger = {
			#deal with elephant command
		}
		
		effect = {
			
		}
	}
	
	R62_loyalty_enforced = {
		icon = mission_assemble_an_army
		position = 25
		required_missions = {
			R62_shackled_claws
			R62_blunted_tusks
			R62_muzzled_breath
		}
		
		trigger = {
			
		}
		
		effect = {
			
		}
	}
}

command_5 = {
	slot = 5
	generic = no
	ai = yes
	has_country_shield = yes
	potential = {
		tag = R62
	}
	
	R62_korashi_imports = {
		icon = mission_assemble_an_army
		position = 2
		
		trigger = {
			mil_power = 50
			alliance_with = Y01
			reverse_has_opinion {
				who = Y01
				value = 150
			}
		}
		
		effect = {
			add_mil_power = -50
			add_country_modifier = {
				name = command_secure_korashi_supply
				duration = -1 #TODO remove when alliance breaks
			}
		}
	}
	
	R62_a_question_of_allegiance = {
		icon = mission_assemble_an_army
		position = 4
		required_missions = {
			R62_korashi_imports
		}
		
		trigger = {
			OR = {
				AND = {
					alliance_with = Y01
					trust = {
						who = Y01
						value = 80
					}
				}
				NOT = {
					alliance_with = Y01
				}
			}
		}
		
		effect = {
			if = {
				limit = {
					alliance_with = Y01
				}
				#! offer slave_state
			}
			else = {
				#! unlock Azjakuma campaign
			}
		}
	}
	
	R62_extract_oni_secrets = {
		icon = mission_assemble_an_army
		position = 6
		required_missions = {
			R62_a_question_of_allegiance
		}
		
		trigger = {
			
		}
		
		effect = {
			
		}
	}
	
	R62_new_chain_workshops = {
		icon = mission_assemble_an_army
		position = 8
		required_missions = {
			R62_extract_oni_secrets
		}
		
		provinces_to_highlight = {
			OR = {
				region = demon_hills
				area = pharata
				area = sir
			}
			has_production_building_trigger = no
		}
		
		trigger = {
			num_of_owned_provinces_with = {
				value = 20
				OR = {
					region = demon_hills
					area = pharata
					area = sir
				}
				has_production_building_trigger = yes
			}
		}
		
		effect = {
			add_country_modifier = {
				name = command_secure_korashi_supply
				duration = -1 # already added before, this time no conditions
			}
		}
	}
	
	R62_end_raheni_magic = {
		icon = mission_assemble_an_army
		position = 9
		required_missions = {
			R62_disarming_the_conquered
			R62_new_chain_workshops
		}
		
		trigger = {
			NOT = { has_country_modifier = command_stockpiling_korashi_chains } #! this isn't added anywhere yet
		}
		
		effect = {
			#event "The End of Rageni Magic"
		}
	}
	
	R62_centralized_exploitation = {
		icon = mission_assemble_an_army
		position = 10
		
		trigger = {
			production_efficiency = 0.3
			num_of_owned_provinces_with = {
				value = 5
				has_production_building_trigger = yes
			}
			treasury = 200
		}
		
		effect = {
			#! 10 production randomly distributed over provinces with workshops
		}
	}
	
	R62_the_sarilavhan_foundries = {
		icon = mission_assemble_an_army
		position = 11
		required_missions = {
			R62_digging_in
			R62_centralized_exploitation
		}
		
		provinces_to_highlight = {
			province_id = 4630 #Sarilavhan
		}
		
		trigger = {
			owns_core_province = 4630 #Sarilavhan
			4630 = {
				base_production = 10
				OR = {
					AND = {
						has_production_building_trigger = yes
						has_manufactury_trigger = yes
					}
					trade_goods = gold
				}
			}
		}
		
		effect = {
			add_permanent_province_modifier = {
				name = command_sarilavhan_foundries
				duration = -1
			}
		}
	}
	
	R62_the_evolution_of_warfare = {
		icon = mission_assemble_an_army
		position = 14
		required_missions = {
			R62_the_sarilavhan_foundries
		}
		
		trigger = {
			num_of_artillery = 1
			has_global_modifier_value = {
				which = discipline
				value = 0.15
			}
		}
		
		effect = {
			add_country_modifier = {
				name = command_a_new_age_of_warfare
				duration = 7300
			}
		}
	}
	
	R62_expand_the_sunyani = {
		icon = mission_assemble_an_army
		position = 17
		required_missions = {
			R62_the_evolution_of_warfare
		}
		
		trigger = {
			num_of_artillery = 20
		}
		
		effect = {
			define_general = {
				fire = 5
				shock = 1
				manuever = 2
				siege = 6
				name = "Tose Wolfborn"
				female = yes
				trait = siege_specialist_personality
			}
		}
	}
	
	R62_the_dragon_command = {
		icon = mission_assemble_an_army
		position = 21
		required_missions = {
			R62_the_act_of_division
			R62_the_great_warcamps
			R62_expand_the_sunyani
		}
		
		trigger = {
			owns_core_province = 4952 #Chatzin
			crown_land_share = 50
			#TODO check if you can complete all three command missions at the same time
		}
		
		effect = {
			4952 = { #Chatzin
				add_province_modifier = {
					name = command_dragon_warcamp
					duration = -1
				}
			}
			#unlock dragon command
			#dragon command gets 10 land, need to test if this works since it takes a month tick sometimes
			change_estate_land_share = {
				estate = estate_dragon_command
				share = 10
			}
		}
	}
	
	R62_korashi_tuners = {
		icon = mission_assemble_an_army
		position = 22
		required_missions = {
			R62_the_dragon_command
		}
		
		trigger = {
			has_country_modifier = command_secure_korashi_supply
			natural_scientist = 3
			estate_loyalty = {
				estate = estate_dragon_command
				loyalty = 60
			}
		}
		
		effect = {
			
		}
	}
	
	R62_korashi_tuners2 = {
		icon = mission_assemble_an_army
		position = 23
		required_missions = {
			R62_korashi_tuners
		}
		
		trigger = {
			
		}
		
		effect = {
			
		}
	}
	
	R62_muzzled_breath = {
		icon = mission_assemble_an_army
		position = 24
		
		trigger = {
			#deal with dragon command
		}
		
		effect = {
			
		}
	}
}